<svg xmlns="http://www.w3.org/2000/svg" fill="none" viewBox="0 0 10 16">
  <path fill-rule="evenodd" d="M.624278 4.14617C.624278 1.85634 2.61575 0 5.07241 0c2.45666 0 4.44813 1.85634 4.44813 4.14617 0 2.28989-1.99147 4.14635-4.44813 4.14635S.624278 6.43606.624278 4.14617zm2.609372.00006c0 .94656.82326 1.71399 1.83876 1.71399 1.0155 0 1.83876-.76743 1.83876-1.71399S6.08791 2.4323 5.07241 2.4323c-1.0155 0-1.83876.76737-1.83876 1.71393z" clip-rule="evenodd"/>
  <path d="M6.64279 11.5916c1.78077-.3381 2.84789-1.1242 2.90436-1.1664.52105-.3895.60475-1.09902.18689-1.58479-.41784-.48571-1.17897-.56373-1.70018-.17426-.01101.0083-1.14917.82214-3.02186.82332-1.87262-.00118-3.03485-.81502-3.04586-.82332-.52121-.38947-1.282344-.31145-1.70018.17426-.4179.48577-.3341925 1.19529.186893 1.58479.057226.0428 1.168397.8493 2.999077 1.1795L.900543 14.0901c-.463668.4483-.449727 1.1619.031128 1.5941.234699.211.537189.3158.839429.3158.31688 0 .63344-.1154.87074-.3449l2.37022-2.3535 2.60963 2.3688c.47283.44 1.23848.4393 1.71043-.0012.47194-.4407.47137-1.1545-.00134-1.5944l-2.68799-2.4832z"/>
</svg>